<?xml version="1.0" encoding="utf-8"?>
<!-- Generator: Adobe Illustrator 24.0.2, SVG Export Plug-In . SVG Version: 6.00 Build 0)  -->
<svg version="1.1" id="Calendar" xmlns="http://www.w3.org/2000/svg" xmlns:xlink="http://www.w3.org/1999/xlink" x="0px" y="0px"
	 viewBox="0 0 341.3 341.3" style="enable-background:new 0 0 341.3 341.3;" xml:space="preserve">
<g>
	<path d="M288,21.3V0h-21.3v21.3h-85.3V0H160v21.3H74.7V0H53.3v21.3C23.9,21.3,0,45.3,0,74.7V288c0,29.4,23.9,53.3,53.3,53.3H288
		c29.4,0,53.3-23.9,53.3-53.3V74.7C341.3,45.3,317.4,21.3,288,21.3z M320,288c0,17.6-14.4,32-32,32H53.3c-17.6,0-32-14.4-32-32V74.7
		c0-17.6,14.4-32,32-32V64h21.3V42.7H160V64h21.3V42.7h85.3V64H288V42.7c17.6,0,32,14.4,32,32V288z"/>
	<circle cx="74.7" cy="117.3" r="16"/>
	<circle cx="138.7" cy="117.3" r="16"/>
	<circle cx="202.7" cy="117.3" r="16"/>
	<circle cx="266.7" cy="117.3" r="16"/>
	<circle cx="74.7" cy="181.3" r="16"/>
	<circle cx="138.7" cy="181.3" r="16"/>
	<circle cx="202.7" cy="181.3" r="16"/>
	<circle cx="266.7" cy="181.3" r="16"/>
	<circle cx="74.7" cy="245.3" r="16"/>
	<circle cx="138.7" cy="245.3" r="16"/>
	<circle cx="202.7" cy="245.3" r="16"/>
</g>
</svg>
